\relax 
\newlabel{/Users/Mac/MY_DOCUMENTS/GEIN/4.1/Compiladores/EkkoLang-Compiler/Latex/source/Ekko_Lexical_Analyzer.l}{{}{3}}
\@writefile{lol}{\contentsline {lstlisting}{/Users/Mac/MY\textunderscore DOCUMENTS/GEIN/4.1/Compiladores/EkkoLang\textendash Compiler/Latex/source/Ekko\textunderscore Lexical\textunderscore Analyzer.l}{3}}
\newlabel{/Users/Mac/MY_DOCUMENTS/GEIN/4.1/Compiladores/EkkoLang-Compiler/Latex/source/semantics-Lexic_Routines.ads}{{}{6}}
\@writefile{lol}{\contentsline {lstlisting}{/Users/Mac/MY\textunderscore DOCUMENTS/GEIN/4.1/Compiladores/EkkoLang\textendash Compiler/Latex/source/semantics\textendash Lexic\textunderscore Routines.ads}{6}}
\newlabel{/Users/Mac/MY_DOCUMENTS/GEIN/4.1/Compiladores/EkkoLang-Compiler/Latex/source/semantics-Lexic_Routines.adb}{{}{7}}
\@writefile{lol}{\contentsline {lstlisting}{/Users/Mac/MY\textunderscore DOCUMENTS/GEIN/4.1/Compiladores/EkkoLang\textendash Compiler/Latex/source/semantics\textendash Lexic\textunderscore Routines.adb}{7}}
\newlabel{/Users/Mac/MY_DOCUMENTS/GEIN/4.1/Compiladores/EkkoLang-Compiler/Latex/source/declarations.ads}{{}{10}}
\@writefile{lol}{\contentsline {lstlisting}{/Users/Mac/MY\textunderscore DOCUMENTS/GEIN/4.1/Compiladores/EkkoLang\textendash Compiler/Latex/source/declarations.ads}{10}}
\newlabel{/Users/Mac/MY_DOCUMENTS/GEIN/4.1/Compiladores/EkkoLang-Compiler/Latex/source/declarations-d_Names_Table.ads}{{}{11}}
\@writefile{lol}{\contentsline {lstlisting}{/Users/Mac/MY\textunderscore DOCUMENTS/GEIN/4.1/Compiladores/EkkoLang\textendash Compiler/Latex/source/declarations\textendash d\textunderscore Names\textunderscore Table.ads}{11}}
\newlabel{/Users/Mac/MY_DOCUMENTS/GEIN/4.1/Compiladores/EkkoLang-Compiler/Latex/source/declarations-d_Names_Table.adb}{{}{12}}
\@writefile{lol}{\contentsline {lstlisting}{/Users/Mac/MY\textunderscore DOCUMENTS/GEIN/4.1/Compiladores/EkkoLang\textendash Compiler/Latex/source/declarations\textendash d\textunderscore Names\textunderscore Table.adb}{12}}
\newlabel{/Users/Mac/MY_DOCUMENTS/GEIN/4.1/Compiladores/EkkoLang-Compiler/Latex/source/semantics.ads}{{}{15}}
\@writefile{lol}{\contentsline {lstlisting}{/Users/Mac/MY\textunderscore DOCUMENTS/GEIN/4.1/Compiladores/EkkoLang\textendash Compiler/Latex/source/semantics.ads}{15}}
\newlabel{/Users/Mac/MY_DOCUMENTS/GEIN/4.1/Compiladores/EkkoLang-Compiler/Latex/source/semantics.adb}{{}{16}}
\@writefile{lol}{\contentsline {lstlisting}{/Users/Mac/MY\textunderscore DOCUMENTS/GEIN/4.1/Compiladores/EkkoLang\textendash Compiler/Latex/source/semantics.adb}{16}}
\newlabel{/Users/Mac/MY_DOCUMENTS/GEIN/4.1/Compiladores/EkkoLang-Compiler/Latex/source/declarations-d_Description.ads}{{}{21}}
\@writefile{lol}{\contentsline {lstlisting}{/Users/Mac/MY\textunderscore DOCUMENTS/GEIN/4.1/Compiladores/EkkoLang\textendash Compiler/Latex/source/declarations\textendash d\textunderscore Description.ads}{21}}
\newlabel{/Users/Mac/MY_DOCUMENTS/GEIN/4.1/Compiladores/EkkoLang-Compiler/Latex/source/declarations-d_Attribute.ads}{{}{23}}
\@writefile{lol}{\contentsline {lstlisting}{/Users/Mac/MY\textunderscore DOCUMENTS/GEIN/4.1/Compiladores/EkkoLang\textendash Compiler/Latex/source/declarations\textendash d\textunderscore Attribute.ads}{23}}
\newlabel{/Users/Mac/MY_DOCUMENTS/GEIN/4.1/Compiladores/EkkoLang-Compiler/Latex/source/Ekko_Syntax_Analyzer.y}{{}{27}}
\@writefile{lol}{\contentsline {lstlisting}{/Users/Mac/MY\textunderscore DOCUMENTS/GEIN/4.1/Compiladores/EkkoLang\textendash Compiler/Latex/source/Ekko\textunderscore Syntax\textunderscore Analyzer.y}{27}}
\newlabel{/Users/Mac/MY_DOCUMENTS/GEIN/4.1/Compiladores/EkkoLang-Compiler/Latex/source/declarations-d_Symbol_Table.ads}{{}{34}}
\@writefile{lol}{\contentsline {lstlisting}{/Users/Mac/MY\textunderscore DOCUMENTS/GEIN/4.1/Compiladores/EkkoLang\textendash Compiler/Latex/source/declarations\textendash d\textunderscore Symbol\textunderscore Table.ads}{34}}
\newlabel{/Users/Mac/MY_DOCUMENTS/GEIN/4.1/Compiladores/EkkoLang-Compiler/Latex/source/declarations-d_Symbol_Table.adb}{{}{36}}
\@writefile{lol}{\contentsline {lstlisting}{/Users/Mac/MY\textunderscore DOCUMENTS/GEIN/4.1/Compiladores/EkkoLang\textendash Compiler/Latex/source/declarations\textendash d\textunderscore Symbol\textunderscore Table.adb}{36}}
\newlabel{/Users/Mac/MY_DOCUMENTS/GEIN/4.1/Compiladores/EkkoLang-Compiler/Latex/source/semantics-Syntax_Routines.ads}{{}{42}}
\@writefile{lol}{\contentsline {lstlisting}{/Users/Mac/MY\textunderscore DOCUMENTS/GEIN/4.1/Compiladores/EkkoLang\textendash Compiler/Latex/source/semantics\textendash Syntax\textunderscore Routines.ads}{42}}
\newlabel{/Users/Mac/MY_DOCUMENTS/GEIN/4.1/Compiladores/EkkoLang-Compiler/Latex/source/semantics-Syntax_Routines.adb}{{}{45}}
\@writefile{lol}{\contentsline {lstlisting}{/Users/Mac/MY\textunderscore DOCUMENTS/GEIN/4.1/Compiladores/EkkoLang\textendash Compiler/Latex/source/semantics\textendash Syntax\textunderscore Routines.adb}{45}}
\newlabel{/Users/Mac/MY_DOCUMENTS/GEIN/4.1/Compiladores/EkkoLang-Compiler/Latex/source/semantics-Type_Checking_Routines.ads}{{}{58}}
\@writefile{lol}{\contentsline {lstlisting}{/Users/Mac/MY\textunderscore DOCUMENTS/GEIN/4.1/Compiladores/EkkoLang\textendash Compiler/Latex/source/semantics\textendash Type\textunderscore Checking\textunderscore Routines.ads}{58}}
\newlabel{/Users/Mac/MY_DOCUMENTS/GEIN/4.1/Compiladores/EkkoLang-Compiler/Latex/source/semantics-Type_Checking_Routines.adb}{{}{61}}
\@writefile{lol}{\contentsline {lstlisting}{/Users/Mac/MY\textunderscore DOCUMENTS/GEIN/4.1/Compiladores/EkkoLang\textendash Compiler/Latex/source/semantics\textendash Type\textunderscore Checking\textunderscore Routines.adb}{61}}
\newlabel{/Users/Mac/MY_DOCUMENTS/GEIN/4.1/Compiladores/EkkoLang-Compiler/Latex/source/declarations-d_3AC.ads}{{}{85}}
\@writefile{lol}{\contentsline {lstlisting}{/Users/Mac/MY\textunderscore DOCUMENTS/GEIN/4.1/Compiladores/EkkoLang\textendash Compiler/Latex/source/declarations\textendash d\textunderscore 3AC.ads}{85}}
\newlabel{/Users/Mac/MY_DOCUMENTS/GEIN/4.1/Compiladores/EkkoLang-Compiler/Latex/source/declarations-d_3AC.adb}{{}{88}}
\@writefile{lol}{\contentsline {lstlisting}{/Users/Mac/MY\textunderscore DOCUMENTS/GEIN/4.1/Compiladores/EkkoLang\textendash Compiler/Latex/source/declarations\textendash d\textunderscore 3AC.adb}{88}}
\newlabel{/Users/Mac/MY_DOCUMENTS/GEIN/4.1/Compiladores/EkkoLang-Compiler/Latex/source/semantics-Code_Generation_Routines.ads}{{}{92}}
\@writefile{lol}{\contentsline {lstlisting}{/Users/Mac/MY\textunderscore DOCUMENTS/GEIN/4.1/Compiladores/EkkoLang\textendash Compiler/Latex/source/semantics\textendash Code\textunderscore Generation\textunderscore Routines.ads}{92}}
\newlabel{/Users/Mac/MY_DOCUMENTS/GEIN/4.1/Compiladores/EkkoLang-Compiler/Latex/source/semantics-Code_Generation_Routines.adb}{{}{95}}
\@writefile{lol}{\contentsline {lstlisting}{/Users/Mac/MY\textunderscore DOCUMENTS/GEIN/4.1/Compiladores/EkkoLang\textendash Compiler/Latex/source/semantics\textendash Code\textunderscore Generation\textunderscore Routines.adb}{95}}
\newlabel{/Users/Mac/MY_DOCUMENTS/GEIN/4.1/Compiladores/EkkoLang-Compiler/Latex/source/semantics-Assembler.ads}{{}{116}}
\@writefile{lol}{\contentsline {lstlisting}{/Users/Mac/MY\textunderscore DOCUMENTS/GEIN/4.1/Compiladores/EkkoLang\textendash Compiler/Latex/source/semantics\textendash Assembler.ads}{116}}
\newlabel{/Users/Mac/MY_DOCUMENTS/GEIN/4.1/Compiladores/EkkoLang-Compiler/Latex/source/semantics-Assembler.adb}{{}{117}}
\@writefile{lol}{\contentsline {lstlisting}{/Users/Mac/MY\textunderscore DOCUMENTS/GEIN/4.1/Compiladores/EkkoLang\textendash Compiler/Latex/source/semantics\textendash Assembler.adb}{117}}
\newlabel{/Users/Mac/MY_DOCUMENTS/GEIN/4.1/Compiladores/EkkoLang-Compiler/Latex/source/main.adb}{{}{125}}
\@writefile{lol}{\contentsline {lstlisting}{/Users/Mac/MY\textunderscore DOCUMENTS/GEIN/4.1/Compiladores/EkkoLang\textendash Compiler/Latex/source/main.adb}{125}}
\newlabel{/Users/Mac/MY_DOCUMENTS/GEIN/4.1/Compiladores/EkkoLang-Compiler/Latex/source/semantics-Messages.adb}{{}{126}}
\@writefile{lol}{\contentsline {lstlisting}{/Users/Mac/MY\textunderscore DOCUMENTS/GEIN/4.1/Compiladores/EkkoLang\textendash Compiler/Latex/source/semantics\textendash Messages.adb}{126}}
\newlabel{/Users/Mac/MY_DOCUMENTS/GEIN/4.1/Compiladores/EkkoLang-Compiler/Latex/source/semantics-Messages.ads}{{}{131}}
\@writefile{lol}{\contentsline {lstlisting}{/Users/Mac/MY\textunderscore DOCUMENTS/GEIN/4.1/Compiladores/EkkoLang\textendash Compiler/Latex/source/semantics\textendash Messages.ads}{131}}
\newlabel{/Users/Mac/MY_DOCUMENTS/GEIN/4.1/Compiladores/EkkoLang-Compiler/Latex/source/d_Stack.ads}{{}{133}}
\@writefile{lol}{\contentsline {lstlisting}{/Users/Mac/MY\textunderscore DOCUMENTS/GEIN/4.1/Compiladores/EkkoLang\textendash Compiler/Latex/source/d\textunderscore Stack.ads}{133}}
\newlabel{/Users/Mac/MY_DOCUMENTS/GEIN/4.1/Compiladores/EkkoLang-Compiler/Latex/source/d_Stack.adb}{{}{134}}
\@writefile{lol}{\contentsline {lstlisting}{/Users/Mac/MY\textunderscore DOCUMENTS/GEIN/4.1/Compiladores/EkkoLang\textendash Compiler/Latex/source/d\textunderscore Stack.adb}{134}}
\newlabel{/Users/Mac/MY_DOCUMENTS/GEIN/4.1/Compiladores/EkkoLang-Compiler/Latex/source/d_Vector.ads}{{}{135}}
\@writefile{lol}{\contentsline {lstlisting}{/Users/Mac/MY\textunderscore DOCUMENTS/GEIN/4.1/Compiladores/EkkoLang\textendash Compiler/Latex/source/d\textunderscore Vector.ads}{135}}
\newlabel{/Users/Mac/MY_DOCUMENTS/GEIN/4.1/Compiladores/EkkoLang-Compiler/Latex/source/d_Vector.adb}{{}{136}}
\@writefile{lol}{\contentsline {lstlisting}{/Users/Mac/MY\textunderscore DOCUMENTS/GEIN/4.1/Compiladores/EkkoLang\textendash Compiler/Latex/source/d\textunderscore Vector.adb}{136}}
\newlabel{LastPage}{{}{137}}
\xdef\lastpage@lastpage{137}
\gdef\lastpage@lastpageHy{}
